^C:\USERS\ПОЛИНА\DESKTOP\КУРСЫ С++\CONSOLEAPPLICATION2.3(СОРТИРОВКА)\CONSOLEAPPLICATION2.3(СОРТИРОВКА)\STDAFX.CPP
/c /ZI /nologo /W3 /WX- /diagnostics:classic /sdl /Od /Oy- /D WIN32 /D _DEBUG /D _CONSOLE /D _UNICODE /D UNICODE /Gm /EHsc /RTC1 /MDd /GS /fp:precise /Zc:wchar_t /Zc:forScope /Zc:inline /Yc"stdafx.h" /Fp"DEBUG\CONSOLEAPPLICATION2.3(СОРТИРОВКА).PCH" /Fo"DEBUG\\" /Fd"DEBUG\VC141.PDB" /Gd /TP /analyze- C:\USERS\ПОЛИНА\DESKTOP\КУРСЫ С++\CONSOLEAPPLICATION2.3(СОРТИРОВКА)\CONSOLEAPPLICATION2.3(СОРТИРОВКА)\STDAFX.CPP
^C:\USERS\ПОЛИНА\DESKTOP\КУРСЫ С++\CONSOLEAPPLICATION2.3(СОРТИРОВКА)\CONSOLEAPPLICATION2.3(СОРТИРОВКА)\CONSOLEAPPLICATION2.3(СОРТИРОВКА).CPP
/c /ZI /nologo /W3 /WX- /diagnostics:classic /sdl /Od /Oy- /D WIN32 /D _DEBUG /D _CONSOLE /D _UNICODE /D UNICODE /Gm /EHsc /RTC1 /MDd /GS /fp:precise /Zc:wchar_t /Zc:forScope /Zc:inline /Yu"stdafx.h" /Fp"DEBUG\CONSOLEAPPLICATION2.3(СОРТИРОВКА).PCH" /Fo"DEBUG\\" /Fd"DEBUG\VC141.PDB" /Gd /TP /analyze- C:\USERS\ПОЛИНА\DESKTOP\КУРСЫ С++\CONSOLEAPPLICATION2.3(СОРТИРОВКА)\CONSOLEAPPLICATION2.3(СОРТИРОВКА)\CONSOLEAPPLICATION2.3(СОРТИРОВКА).CPP
